Code2


Allowable Hs
Tp/direction          0      45      90      135      180      225      270      315
6                   2.5      2.5      2.5      2.5      2.5      2.5      2.5      2.5
7                   2.5      2.5      2.5      2.5      2.5      2.5      2.5      2.5
8                   2.5      2.5      1.9      2.1      2.5      2.5      2.5      2.5
9                   2.5      2.5      2.5      2.3      2.5      2.5      2.5      2.5

            
            
            

